<?xml version="1.0" encoding="UTF-8" standalone="no"?>
<svg
   class="menu-icon"
   viewBox="0 0 26.999994 17.999969"
   fill="none">
  <path
     fill="#ffffff"
     d="M 13.499995,17.999969 H 0 v -3 h 13.499995 z m 13.5,-7.5 H 0 v -2.99997 h 26.999995 z m 0,-7.49997 h -13.5 V 0 h 13.5 z" />
</svg>
